[gd_scene load_steps=3 format=2]

[ext_resource path="res://scenes/menu/resource.tscn" type="PackedScene" id=1]
[ext_resource path="res://assets/sprites/hud/Bois.png" type="Texture" id=2]

[node name="Wood" instance=ExtResource( 1 )]

[node name="ColorRect" parent="." index="0"]
texture = ExtResource( 2 )
